{
    "AllowBackForwardCacheForCacheControlNoStorePageEnabled": false,
    "AllowDinosaurEasterEgg": true,
    "AutofillAddressEnabled": false,
    "AutoplayAllowed": true,
    "BackgroundModeEnabled": false,
    "FullscreenAllowed": true,
    "HomepageIsNewTabPage": false,
    "PasswordManagerEnabled": false,
    "PaymentMethodQueryEnabled": false,
    "PrivacySandboxAdMeasurementEnabled": false,
    "PrivacySandboxAdTopicsEnabled": false,
    "PrivacySandboxPromptEnabled": false,
    "RestoreOnStartup": 1,
    "SearchSuggestEnabled": false,
    "ShowHomeButton": false,
    "SyncDisabled": true
}
